{
    "KPlugin": {
        "Icon": "",
        "Name": "Weather Satellite (NOAA)",
        "Name[ar]": "قمر الطقس (NOAA)",
        "Name[az]": "Metereoloji Peyk (NOAA)",
        "Name[ca]": "Satèl·lits meteorològics (NOAA)",
        "Name[cs]": "Meteorologický satelit (NOAA)",
        "Name[da]": "Vejrsatellit (NOAA)",
        "Name[de]": "Wettersatellit (NOAA)",
        "Name[en_GB]": "Weather Satellite (NOAA)",
        "Name[es]": "Satélite meteorológico (NOAA)",
        "Name[et]": "Ilmasatelliit (NOAA)",
        "Name[eu]": "Satelite meteorologikoa - Weather Satellite (NOAA)",
        "Name[fi]": "Sääsatelliitti (NOAA)",
        "Name[fr]": "Satellite météo (NOAA)",
        "Name[gl]": "Satélite meteorolóxico (NOAA)",
        "Name[hu]": "Meteorológiai műhold (NOAA)",
        "Name[ia]": "Weather Satellite (NOAA)",
        "Name[id]": "Weather Satellite (NOAA)",
        "Name[it]": "Satellite meteo (NOAA)",
        "Name[ja]": "気象衛星 (NOAA)",
        "Name[ko]": "기상 위성(NOAA)",
        "Name[lt]": "Orų palydovas (NOAA)",
        "Name[nl]": "Weersatelliet (NOAA)",
        "Name[nn]": "Vêrsatellitt (NOAA)",
        "Name[pl]": "Satelita pogodowa (NOAA)",
        "Name[pt]": "Weather Satellite (NOAA)",
        "Name[pt_BR]": "Satélite meteorológico (NOAA)",
        "Name[ro]": "Satelit meteorologic (NOAA)",
        "Name[ru]": "Метеоспутник (NOAA)",
        "Name[sk]": "Meteorologický satelit (NOAA)",
        "Name[sl]": "Vremenski satelit (NOAA)",
        "Name[sv]": "Vädersatellit (NOAA)",
        "Name[uk]": "Метеорологічний супутник (NOAA)",
        "Name[vi]": "Vệ tinh thời tiết (NOAA)",
        "Name[x-test]": "xxWeather Satellite (NOAA)xx",
        "Name[zh_CN]": "气象卫星 (NOAA)",
        "Name[zh_TW]": "Weather Satellite (NOAA)"
    },
    "X-KDE-PlasmaPoTDProvider-Identifier": "noaa"
}
