{
    "KPlugin": {
        "Authors": [
            {
                "Email": "dev.larpon@gmail.com",
                "Name": "Lars Pontoppidan",
                "Name[ar]": "Lars Pontoppidan",
                "Name[az]": "Lars Pontoppidan",
                "Name[ca]": "Lars Pontoppidan",
                "Name[cs]": "Lars Pontoppidan",
                "Name[de]": "Lars Pontoppidan",
                "Name[en_GB]": "Lars Pontoppidan",
                "Name[es]": "Lars Pontoppidan",
                "Name[eu]": "Lars Pontoppidan",
                "Name[fi]": "Lars Pontoppidan",
                "Name[fr]": "Lars Pontoppidan",
                "Name[ia]": "Lars Pontoppidan",
                "Name[it]": "Lars Pontoppidan",
                "Name[ja]": "Lars Pontoppidan",
                "Name[ko]": "Lars Pontoppidan",
                "Name[lt]": "Lars Pontoppidan",
                "Name[nl]": "Lars Pontoppidan",
                "Name[nn]": "Lars Pontoppidan",
                "Name[pl]": "Lars Pontoppidan",
                "Name[pt]": "Lars Pontoppidan",
                "Name[pt_BR]": "Lars Pontoppidan",
                "Name[ro]": "Lars Pontoppidan",
                "Name[ru]": "Lars Pontoppidan",
                "Name[sk]": "Lars Pontoppidan",
                "Name[sl]": "Lars Pontoppidan",
                "Name[sv]": "Lars Pontoppidan",
                "Name[uk]": "Lars Pontoppidan",
                "Name[vi]": "Lars Pontoppidan",
                "Name[x-test]": "xxLars Pontoppidanxx",
                "Name[zh_CN]": "Lars Pontoppidan"
            }
        ],
        "Category": "Utilities",
        "Description": "(Picture) Frame",
        "Description[ar]": "إطار (الصورة)",
        "Description[az]": "(Şəkil) Çərçivə",
        "Description[ca]": "Marc (fotografies)",
        "Description[cs]": "Rámeček (obrázku)",
        "Description[de]": "(Bilder)-Rahmen",
        "Description[en_GB]": "(Picture) Frame",
        "Description[es]": "Marco (de imagen)",
        "Description[eu]": "(Irudi) markoa",
        "Description[fi]": "(Kuva-) kehys",
        "Description[fr]": "Trame (Image)",
        "Description[ia]": "(Picture) Frame - (Photogramma)",
        "Description[it]": "(Immagine) Cornice",
        "Description[ja]": "写真フレーム",
        "Description[ko]": "(사진) 프레임",
        "Description[lt]": "Paveikslų rėmelis",
        "Description[nl]": "(Afbeelding) frame",
        "Description[nn]": "Bilet­ramme",
        "Description[pl]": "(Zdjęcie) Ramka",
        "Description[pt]": "Moldura (Imagem)",
        "Description[pt_BR]": "Quadro (Imagens)",
        "Description[ro]": "Ramă (cu poze)",
        "Description[ru]": "Слайд-шоу из любимых изображений",
        "Description[sk]": "(Obrázok) Rám",
        "Description[sl]": "(Slika) Okvir",
        "Description[sv]": "Bildram",
        "Description[uk]": "(Картинна) рамка",
        "Description[vi]": "Khung (ảnh)",
        "Description[x-test]": "xx(Picture) Framexx",
        "Description[zh_CN]": "(图片) 相框",
        "EnabledByDefault": true,
        "Icon": "image-x-generic",
        "Id": "org.kde.plasma.mediaframe",
        "License": "GPL-2.0+",
        "Name": "Media Frame",
        "Name[ar]": "إطار صور",
        "Name[az]": "Fotoçərçivə",
        "Name[ca]": "Marc multimèdia",
        "Name[cs]": "Rámec médií",
        "Name[de]": "Medien-Rahmen",
        "Name[en_GB]": "Media Frame",
        "Name[es]": "Marco multimedia",
        "Name[eu]": "Multimedia markoa",
        "Name[fi]": "Mediakehys",
        "Name[fr]": "Trame de média",
        "Name[ia]": "Quadro de Media",
        "Name[it]": "Cornice media",
        "Name[ja]": "メディアフレーム",
        "Name[ko]": "미디어 프레임",
        "Name[lt]": "Medijos rėmelis",
        "Name[nl]": "Mediaframe",
        "Name[nn]": "Medie­ramme",
        "Name[pl]": "Ramka multimedialna",
        "Name[pt]": "Moldura de Conteúdos",
        "Name[pt_BR]": "Quadro multimídia",
        "Name[ro]": "Ramă multimedia",
        "Name[ru]": "Фоторамка",
        "Name[sk]": "Multimediálny rámik",
        "Name[sl]": "Okvir medijev",
        "Name[sv]": "Mediaram",
        "Name[uk]": "Медіарамка",
        "Name[vi]": "Khung phương tiện",
        "Name[x-test]": "xxMedia Framexx",
        "Name[zh_CN]": "媒体相框",
        "ServiceTypes": [
            "Plasma/Applet"
        ],
        "Version": "1.0",
        "Website": "https://kde.org/plasma-desktop/"
    },
    "X-Plasma-API": "declarativeappletscript",
    "X-Plasma-DropMimeTypes": [
        "inode/directory",
        "image/jpeg",
        "image/png",
        "image/svg+xml",
        "image/svg+xml-compressed",
        "image/bmp"
    ],
    "X-Plasma-MainScript": "ui/main.qml",
    "X-Plasma-StandAloneApp": true
}
